------------------------------------------------------------------------------
DOCKER PARAMETERS

Options related to Docker.

USAGE:

    nodocker
            Do not start the Docker Engine during init.












EXAMPLES:

    boot: lightwhale nodocker

